INDEX VERSION 1.126+/Users/rsachira/Documents/workspace/.metadata/.plugins/org.eclipse.jdt.core
770573466.index
3321539481.index
2772779998.index
1672522668.index
500262295.index
1785143188.index
1430193639.index
4249315662.index
851060984.index
84777399.index
3000285004.index
386612652.index
3718660445.index
3814468347.index
156905802.index
1384487945.index
450555687.index
3068169849.index
3244578674.index
3712507179.index
2600835845.index
3569674952.index
98193026.index
2215776264.index
272178059.index
902337699.index
1880892309.index
3954040986.index
2935996061.index
2334648035.index
3266658637.index
2175256763.index
765977872.index
2065094586.index
3266567714.index
3004609673.index
3302703152.index
2256938699.index
2122150502.index
1833648217.index
1057005611.index
1155416003.index
2320161186.index
731150691.index
2246006690.index
1271342938.index
284841322.index
2545238116.index
2835018730.index
2326659272.index
2266667712.index
2019358150.index
232680163.index
1819685514.index
