<?xml version="1.0" encoding="UTF-8"?>
<session version="1.0">
<refactoring comment="Rename type &apos;com.me.mygdxgame.Positions&apos; to &apos;FlyingTileInfo&apos;&#x0A;- Original project: &apos;ballGame&apos;&#x0A;- Original element: &apos;com.me.mygdxgame.Positions&apos;&#x0A;- Renamed element: &apos;com.me.mygdxgame.FlyingTileInfo&apos;&#x0A;- Update references to refactored element&#x0A;- Update textual occurrences in comments and strings" description="Rename type &apos;Positions&apos;" flags="589830" id="org.eclipse.jdt.ui.rename.type" input="/src&lt;com.me.mygdxgame{Positions.java[Positions" matchStrategy="1" name="FlyingTileInfo" qualified="false" references="true" similarDeclarations="false" stamp="1374381053132" textual="false" version="1.0"/>
</session>