GROUNDTILE 20.0 55.0 125.0 StaticBody
GROUNDTILE 571.0 239.00002 250.0 StaticBody
FLYINGTILE 187.0 60.000004 429.0 241.00002 75.0 false KinematicBody
COIN 197.5 137.0
COIN 307.5 185.0
COIN 252.50002 159.0
COIN 364.5 221.0
COIN 418.5 257.0
BOUNCE 60.0 147.0
BALLOONY 680.0 283.0