GROUNDTILE 26.0 73.0 125.0 StaticBody
GROUNDTILE 259.0 72.0 250.0 StaticBody
COIN 268.5 116.0
COIN 140.5 116.0
COIN 155.5 150.0
COIN 247.49998 154.0
COIN 200.5 174.0
BOUNCE 77.0 156.0
BALLOONY 446.0 142.0