GROUNDTILE 150.0 24.0 125.0 StaticBody
GROUNDTILE 222.0 272.0 25.0 StaticBody
INCLINEDTILE 327.5165 110.5165 75.0 r StaticBody
INCLINEDTILE 133.51651 159.48349 75.0 l StaticBody
INCLINEDTILE 323.5165 215.51651 75.0 r StaticBody
COIN 296.5 153.0
COIN 163.5 206.0
COIN 301.5 257.0
BOUNCE 208.0 121.0
BALLOONY 232.0 307.0