GROUNDTILE 30.000002 61.0 125.0 StaticBody
GROUNDTILE 245.0 170.0 75.0 StaticBody
GROUNDTILE 404.0 84.0 75.0 StaticBody
GROUNDTILE 551.0 190.0 75.0 StaticBody
GROUNDTILE 747.0 115.0 75.0 StaticBody
COIN 261.5 233.99998
COIN 309.5 234.99998
COIN 420.5 131.0
COIN 458.5 133.0
COIN 584.5 236.99998
BOUNCE 74.0 160.0
BALLOONY 771.0 185.0