INDEX VERSION 1.126+/Users/rsachira/Documents/workspace/flappy/.metadata/.plugins/org.eclipse.jdt.core
3004609673.index
3954040986.index
2246552968.index
450555687.index
855355354.index
535111209.index
1384487945.index
84777399.index
3569674952.index
715449377.index
4238209716.index
3812380378.index
3321539481.index
1616213272.index
3244578674.index
2568877490.index
2545238116.index
1833648217.index
3302703152.index
310422513.index
1510407934.index
2399753967.index
485525976.index
770573466.index
3712507179.index
746805565.index
3000353096.index
3697605028.index
1203325485.index
2048693532.index
2074543482.index
4249315662.index
1271342938.index
156905802.index
1470803178.index
1819685514.index
3000285004.index
272178059.index
2326659272.index
3266567714.index
765977872.index
