<?xml version="1.0" encoding="UTF-8"?>
<session version="1.0">
<refactoring accessors="true" comment="Delete element from project &apos;ballGame&apos;&#x0A;- Original project: &apos;ballGame&apos;&#x0A;- Original element: &apos;com.me.mygdxgame.Grass.java&apos;" description="Delete element" element1="/src&lt;com.me.mygdxgame{Grass.java" elements="1" flags="589830" id="org.eclipse.jdt.ui.delete" resources="0" stamp="1377667671046" subPackages="false" version="1.0"/>
</session>